ParteC/simulation/qsim/partec.msim.vcd
$comment
	File created using the following command:
		vcd file partec.msim.vcd -direction
$end
$date
	Thu Nov 24 01:46:56 2022
$end
$version
	ModelSim Version 10.1d
$end
$timescale
	1ps
$end
$scope module esquematico_vlg_vec_tst $end
$var reg 1 ! a1 $end
$var reg 1 " a2 $end
$var reg 1 # a3 $end
$var reg 1 $ a4 $end
$var reg 1 % b1 $end
$var reg 1 & b2 $end
$var reg 1 ' b3 $end
$var reg 1 ( b4 $end
$var reg 1 ) cin $end
$var reg 1 * clk $end
$var wire 1 + cout $end
$var wire 1 , s1 $end
$var wire 1 - s2 $end
$var wire 1 . s3 $end
$var wire 1 / s4 $end
$var wire 1 0 sampler $end
$scope module i1 $end
$var wire 1 1 gnd $end
$var wire 1 2 vcc $end
$var wire 1 3 unknown $end
$var tri1 1 4 devclrn $end
$var tri1 1 5 devpor $end
$var tri1 1 6 devoe $end
$var wire 1 7 inst14~q $end
$var wire 1 8 b3~input_o $end
$var wire 1 9 s1~output_o $end
$var wire 1 : s2~output_o $end
$var wire 1 ; s3~output_o $end
$var wire 1 < s4~output_o $end
$var wire 1 = cout~output_o $end
$var wire 1 > clk~input_o $end
$var wire 1 ? clk~inputclkctrl_outclk $end
$var wire 1 @ a1~input_o $end
$var wire 1 A inst19~feeder_combout $end
$var wire 1 B inst19~q $end
$var wire 1 C b1~input_o $end
$var wire 1 D inst12~q $end
$var wire 1 E inst|f~0_combout $end
$var wire 1 F inst7~q $end
$var wire 1 G a2~input_o $end
$var wire 1 H inst18~feeder_combout $end
$var wire 1 I inst18~q $end
$var wire 1 J cin~input_o $end
$var wire 1 K inst22~q $end
$var wire 1 L inst|cout~0_combout $end
$var wire 1 M inst|cout~1_combout $end
$var wire 1 N inst9|f~combout $end
$var wire 1 O inst5~q $end
$var wire 1 P a3~input_o $end
$var wire 1 Q inst17~feeder_combout $end
$var wire 1 R inst17~q $end
$var wire 1 S b2~input_o $end
$var wire 1 T inst13~q $end
$var wire 1 U inst8~combout $end
$var wire 1 V inst9|cout~0_combout $end
$var wire 1 W inst10|f~0_combout $end
$var wire 1 X inst3~q $end
$var wire 1 Y b4~input_o $end
$var wire 1 Z inst16~feeder_combout $end
$var wire 1 [ inst16~q $end
$var wire 1 \ inst10|cout~0_combout $end
$var wire 1 ] inst11|f~0_combout $end
$var wire 1 ^ inst1~q $end
$var wire 1 _ a4~input_o $end
$var wire 1 ` inst15~feeder_combout $end
$var wire 1 a inst15~q $end
$var wire 1 b inst11|cout~0_combout $end
$upscope $end
$upscope $end
$enddefinitions $end
#0
$dumpvars
1!
0"
1#
0$
0%
1&
0'
1(
0)
0*
0+
0,
0-
0.
0/
x0
01
12
x3
14
15
16
07
08
09
0:
0;
0<
0=
0>
0?
1@
1A
0B
0C
0D
0E
0F
0G
0H
0I
0J
0K
0L
0M
0N
0O
1P
1Q
0R
1S
0T
0U
0V
0W
0X
1Y
1Z
0[
0\
0]
0^
0_
0`
0a
0b
$end
#2500
1*
1>
1?
00
1[
1T
1R
1B
1]
1U
1W
1E
1N
#5000
0*
0>
0?
10
#7500
1*
1>
1?
00
1^
1X
1O
1F
1<
1;
1:
19
1/
1.
1-
1,
#10000
0*
0>
0?
10
#12500
1*
1>
1?
00
#15000
0*
0>
0?
10
#17500
1*
1>
1?
00
#20000
0*
0>
0?
10
#22500
1*
1>
1?
00
#25000
0*
0>
0?
10
#27500
1*
1>
1?
00
#30000
0*
0>
0?
10
#32500
1*
1>
1?
00
#35000
0*
0>
0?
10
#37500
1*
1>
1?
00
#40000
0*
0>
0?
10
#42500
1*
1>
1?
00
#45000
0*
0>
0?
10
#47500
1*
1>
1?
00
#50000
0*
0>
0?
10
#52500
1*
1>
1?
00
#55000
0*
0>
0?
10
#57500
1*
1>
1?
00
#60000
0*
0>
0?
10
#62500
1*
1>
1?
00
#65000
0*
0>
0?
10
#67500
1*
1>
1?
00
#70000
0*
0>
0?
10
#72500
1*
1>
1?
00
#75000
0*
0>
0?
10
#77500
1*
1>
1?
00
#80000
0*
0>
0?
10
#82500
1*
1>
1?
00
#85000
0*
0>
0?
10
#87500
1*
1>
1?
00
#90000
0*
0>
0?
10
#92500
1*
1>
1?
00
#95000
0*
0>
0?
10
#97500
1*
1>
1?
00
#100000
0*
0>
0?
10
#102500
1*
1>
1?
00
#105000
0*
0>
0?
10
#107500
1*
1>
1?
00
#110000
0*
0>
0?
10
#112500
1*
1>
1?
00
#115000
0*
0>
0?
10
#117500
1*
1>
1?
00
#120000
0*
0>
0?
10
#122500
1*
1>
1?
00
#125000
0*
0>
0?
10
#127500
1*
1>
1?
00
#130000
0*
0>
0?
10
#132500
1*
1>
1?
00
#135000
0*
0>
0?
10
#137500
1*
1>
1?
00
#140000
0*
0>
0?
10
#142500
1*
1>
1?
00
#145000
0*
0>
0?
10
#147500
1*
1>
1?
00
#150000
0*
0>
0?
10
#152500
1*
1>
1?
00
#155000
0*
0>
0?
10
#157500
1*
1>
1?
00
#160000
0*
0>
0?
10
#162500
1*
1>
1?
00
#165000
0*
0>
0?
10
#167500
1*
1>
1?
00
#170000
0*
0>
0?
10
#172500
1*
1>
1?
00
#175000
0*
0>
0?
10
#177500
1*
1>
1?
00
#180000
0*
0>
0?
10
#182500
1*
1>
1?
00
#185000
0*
0>
0?
10
#187500
1*
1>
1?
00
#190000
0*
0>
0?
10
#192500
1*
1>
1?
00
#195000
0*
0>
0?
10
#197500
1*
1>
1?
00
#200000
0*
0>
0?
10
#202500
1*
1>
1?
00
#205000
0*
0>
0?
10
#207500
1*
1>
1?
00
#210000
0*
0>
0?
10
#212500
1*
1>
1?
00
#215000
0*
0>
0?
10
#217500
1*
1>
1?
00
#220000
0*
0>
0?
10
#222500
1*
1>
1?
00
#225000
0*
0>
0?
10
#227500
1*
1>
1?
00
#230000
0*
0>
0?
10
#232500
1*
1>
1?
00
#235000
0*
0>
0?
10
#237500
1*
1>
1?
00
#240000
0*
0>
0?
10
#242500
1*
1>
1?
00
#245000
0*
0>
0?
10
#247500
1*
1>
1?
00
#250000
0*
0>
0?
10
#252500
1*
1>
1?
00
#255000
0*
0>
0?
10
#257500
1*
1>
1?
00
#260000
0*
0>
0?
10
#262500
1*
1>
1?
00
#265000
0*
0>
0?
10
#267500
1*
1>
1?
00
#270000
0*
0>
0?
10
#272500
1*
1>
1?
00
#275000
0*
0>
0?
10
#277500
1*
1>
1?
00
#280000
0*
0>
0?
10
#282500
1*
1>
1?
00
#285000
0*
0>
0?
10
#287500
1*
1>
1?
00
#290000
0*
0>
0?
10
#292500
1*
1>
1?
00
#295000
0*
0>
0?
10
#297500
1*
1>
1?
00
#300000
0*
0>
0?
10
#302500
1*
1>
1?
00
#305000
0*
0>
0?
10
#307500
1*
1>
1?
00
#310000
0*
0>
0?
10
#312500
1*
1>
1?
00
#315000
0*
0>
0?
10
#317500
1*
1>
1?
00
#320000
0*
0>
0?
10
#322500
1*
1>
1?
00
#325000
0*
0>
0?
10
#327500
1*
1>
1?
00
#330000
0*
0>
0?
10
#332500
1*
1>
1?
00
#335000
0*
0>
0?
10
#337500
1*
1>
1?
00
#340000
0*
0>
0?
10
#342500
1*
1>
1?
00
#345000
0*
0>
0?
10
#347500
1*
1>
1?
00
#350000
0*
0>
0?
10
#352500
1*
1>
1?
00
#355000
0*
0>
0?
10
#357500
1*
1>
1?
00
#360000
0*
0>
0?
10
#362500
1*
1>
1?
00
#365000
0*
0>
0?
10
#367500
1*
1>
1?
00
#370000
0*
0>
0?
10
#372500
1*
1>
1?
00
#375000
0*
0>
0?
10
#377500
1*
1>
1?
00
#380000
0*
0>
0?
10
#382500
1*
1>
1?
00
#385000
0*
0>
0?
10
#387500
1*
1>
1?
00
#390000
0*
0>
0?
10
#392500
1*
1>
1?
00
#395000
0*
0>
0?
10
#397500
1*
1>
1?
00
#400000
0*
0>
0?
10
#402500
1*
1>
1?
00
#405000
0*
0>
0?
10
#407500
1*
1>
1?
00
#410000
0*
0>
0?
10
#412500
1*
1>
1?
00
#415000
0*
0>
0?
10
#417500
1*
1>
1?
00
#420000
0*
0>
0?
10
#422500
1*
1>
1?
00
#425000
0*
0>
0?
10
#427500
1*
1>
1?
00
#430000
0*
0>
0?
10
#432500
1*
1>
1?
00
#435000
0*
0>
0?
10
#437500
1*
1>
1?
00
#440000
0*
0>
0?
10
#442500
1*
1>
1?
00
#445000
0*
0>
0?
10
#447500
1*
1>
1?
00
#450000
0*
0>
0?
10
#452500
1*
1>
1?
00
#455000
0*
0>
0?
10
#457500
1*
1>
1?
00
#460000
0*
0>
0?
10
#462500
1*
1>
1?
00
#465000
0*
0>
0?
10
#467500
1*
1>
1?
00
#470000
0*
0>
0?
10
#472500
1*
1>
1?
00
#475000
0*
0>
0?
10
#477500
1*
1>
1?
00
#480000
0*
0>
0?
10
#482500
1*
1>
1?
00
#485000
0*
0>
0?
10
#487500
1*
1>
1?
00
#490000
0*
0>
0?
10
#492500
1*
1>
1?
00
#495000
0*
0>
0?
10
#497500
1*
1>
1?
00
#500000
0*
0>
0?
10
#502500
1*
1>
1?
00
#505000
0*
0>
0?
10
#507500
1*
1>
1?
00
#510000
0*
0>
0?
10
#512500
1*
1>
1?
00
#515000
0*
0>
0?
10
#517500
1*
1>
1?
00
#520000
0*
0>
0?
10
#522500
1*
1>
1?
00
#525000
0*
0>
0?
10
#527500
1*
1>
1?
00
#530000
0*
0>
0?
10
#532500
1*
1>
1?
00
#535000
0*
0>
0?
10
#537500
1*
1>
1?
00
#540000
0*
0>
0?
10
#542500
1*
1>
1?
00
#545000
0*
0>
0?
10
#547500
1*
1>
1?
00
#550000
0*
0>
0?
10
#552500
1*
1>
1?
00
#555000
0*
0>
0?
10
#557500
1*
1>
1?
00
#560000
0*
0>
0?
10
#562500
1*
1>
1?
00
#565000
0*
0>
0?
10
#567500
1*
1>
1?
00
#570000
0*
0>
0?
10
#572500
1*
1>
1?
00
#575000
0*
0>
0?
10
#577500
1*
1>
1?
00
#580000
0*
0>
0?
10
#582500
1*
1>
1?
00
#585000
0*
0>
0?
10
#587500
1*
1>
1?
00
#590000
0*
0>
0?
10
#592500
1*
1>
1?
00
#595000
0*
0>
0?
10
#597500
1*
1>
1?
00
#600000
0*
0>
0?
10
#602500
1*
1>
1?
00
#605000
0*
0>
0?
10
#607500
1*
1>
1?
00
#610000
0*
0>
0?
10
#612500
1*
1>
1?
00
#615000
0*
0>
0?
10
#617500
1*
1>
1?
00
#620000
0*
0>
0?
10
#622500
1*
1>
1?
00
#625000
0*
0>
0?
10
#627500
1*
1>
1?
00
#630000
0*
0>
0?
10
#632500
1*
1>
1?
00
#635000
0*
0>
0?
10
#637500
1*
1>
1?
00
#640000
0*
0>
0?
10
#642500
1*
1>
1?
00
#645000
0*
0>
0?
10
#647500
1*
1>
1?
00
#650000
0*
0>
0?
10
#652500
1*
1>
1?
00
#655000
0*
0>
0?
10
#657500
1*
1>
1?
00
#660000
0*
0>
0?
10
#662500
1*
1>
1?
00
#665000
0*
0>
0?
10
#667500
1*
1>
1?
00
#670000
0*
0>
0?
10
#672500
1*
1>
1?
00
#675000
0*
0>
0?
10
#677500
1*
1>
1?
00
#680000
0*
0>
0?
10
#682500
1*
1>
1?
00
#685000
0*
0>
0?
10
#687500
1*
1>
1?
00
#690000
0*
0>
0?
10
#692500
1*
1>
1?
00
#695000
0*
0>
0?
10
#697500
1*
1>
1?
00
#700000
0*
0>
0?
10
#702500
1*
1>
1?
00
#705000
0*
0>
0?
10
#707500
1*
1>
1?
00
#710000
0*
0>
0?
10
#712500
1*
1>
1?
00
#715000
0*
0>
0?
10
#717500
1*
1>
1?
00
#720000
0*
0>
0?
10
#722500
1*
1>
1?
00
#725000
0*
0>
0?
10
#727500
1*
1>
1?
00
#730000
0*
0>
0?
10
#732500
1*
1>
1?
00
#735000
0*
0>
0?
10
#737500
1*
1>
1?
00
#740000
0*
0>
0?
10
#742500
1*
1>
1?
00
#745000
0*
0>
0?
10
#747500
1*
1>
1?
00
#750000
0*
0>
0?
10
#752500
1*
1>
1?
00
#755000
0*
0>
0?
10
#757500
1*
1>
1?
00
#760000
0*
0>
0?
10
#762500
1*
1>
1?
00
#765000
0*
0>
0?
10
#767500
1*
1>
1?
00
#770000
0*
0>
0?
10
#772500
1*
1>
1?
00
#775000
0*
0>
0?
10
#777500
1*
1>
1?
00
#780000
0*
0>
0?
10
#782500
1*
1>
1?
00
#785000
0*
0>
0?
10
#787500
1*
1>
1?
00
#790000
0*
0>
0?
10
#792500
1*
1>
1?
00
#795000
0*
0>
0?
10
#797500
1*
1>
1?
00
#800000
0*
0>
0?
10
#802500
1*
1>
1?
00
#805000
0*
0>
0?
10
#807500
1*
1>
1?
00
#810000
0*
0>
0?
10
#812500
1*
1>
1?
00
#815000
0*
0>
0?
10
#817500
1*
1>
1?
00
#820000
0*
0>
0?
10
#822500
1*
1>
1?
00
#825000
0*
0>
0?
10
#827500
1*
1>
1?
00
#830000
0*
0>
0?
10
#832500
1*
1>
1?
00
#835000
0*
0>
0?
10
#837500
1*
1>
1?
00
#840000
0*
0>
0?
10
#842500
1*
1>
1?
00
#845000
0*
0>
0?
10
#847500
1*
1>
1?
00
#850000
0*
0>
0?
10
#852500
1*
1>
1?
00
#855000
0*
0>
0?
10
#857500
1*
1>
1?
00
#860000
0*
0>
0?
10
#862500
1*
1>
1?
00
#865000
0*
0>
0?
10
#867500
1*
1>
1?
00
#870000
0*
0>
0?
10
#872500
1*
1>
1?
00
#875000
0*
0>
0?
10
#877500
1*
1>
1?
00
#880000
0*
0>
0?
10
#882500
1*
1>
1?
00
#885000
0*
0>
0?
10
#887500
1*
1>
1?
00
#890000
0*
0>
0?
10
#892500
1*
1>
1?
00
#895000
0*
0>
0?
10
#897500
1*
1>
1?
00
#900000
0*
0>
0?
10
#902500
1*
1>
1?
00
#905000
0*
0>
0?
10
#907500
1*
1>
1?
00
#910000
0*
0>
0?
10
#912500
1*
1>
1?
00
#915000
0*
0>
0?
10
#917500
1*
1>
1?
00
#920000
0*
0>
0?
10
#922500
1*
1>
1?
00
#925000
0*
0>
0?
10
#927500
1*
1>
1?
00
#930000
0*
0>
0?
10
#932500
1*
1>
1?
00
#935000
0*
0>
0?
10
#937500
1*
1>
1?
00
#940000
0*
0>
0?
10
#942500
1*
1>
1?
00
#945000
0*
0>
0?
10
#947500
1*
1>
1?
00
#950000
0*
0>
0?
10
#952500
1*
1>
1?
00
#955000
0*
0>
0?
10
#957500
1*
1>
1?
00
#960000
0*
0>
0?
10
#962500
1*
1>
1?
00
#965000
0*
0>
0?
10
#967500
1*
1>
1?
00
#970000
0*
0>
0?
10
#972500
1*
1>
1?
00
#975000
0*
0>
0?
10
#977500
1*
1>
1?
00
#980000
0*
0>
0?
10
#982500
1*
1>
1?
00
#985000
0*
0>
0?
10
#987500
1*
1>
1?
00
#990000
0*
0>
0?
10
#992500
1*
1>
1?
00
#995000
0*
0>
0?
10
#997500
1*
1>
1?
00
