ParteD/simulation/qsim/parted.msim.vcd
$comment
	File created using the following command:
		vcd file parted.msim.vcd -direction
$end
$date
	Thu Nov 24 02:50:19 2022
$end
$version
	ModelSim Version 10.1d
$end
$timescale
	1ps
$end
$scope module SM1_vlg_vec_tst $end
$var reg 1 ! clock $end
$var reg 1 " reset $end
$var reg 1 # x $end
$var wire 1 $ z $end
$var wire 1 % sampler $end
$scope module i1 $end
$var wire 1 & gnd $end
$var wire 1 ' vcc $end
$var wire 1 ( unknown $end
$var tri1 1 ) devclrn $end
$var tri1 1 * devpor $end
$var tri1 1 + devoe $end
$var wire 1 , clock~input_o $end
$var wire 1 - clock~inputclkctrl_outclk $end
$var wire 1 . z~output_o $end
$var wire 1 / x~input_o $end
$var wire 1 0 Selector1~0_combout $end
$var wire 1 1 reset~input_o $end
$var wire 1 2 reset~inputclkctrl_outclk $end
$var wire 1 3 fstate.state2~q $end
$var wire 1 4 Selector3~0_combout $end
$var wire 1 5 fstate.state4~q $end
$var wire 1 6 Selector0~0_combout $end
$var wire 1 7 fstate.state1~q $end
$var wire 1 8 Selector2~0_combout $end
$var wire 1 9 fstate.state3~q $end
$var wire 1 : Selector4~0_combout $end
$upscope $end
$upscope $end
$enddefinitions $end
#0
$dumpvars
0!
0"
0#
0$
x%
0&
1'
x(
1)
1*
1+
0,
0-
0.
0/
10
01
02
03
04
05
16
07
08
09
0:
$end
#15000
1!
1,
1-
0%
17
13
#25000
1#
1/
1%
06
00
1:
1.
1$
#30000
0!
0,
0-
0%
#45000
1!
1,
1-
1%
07
03
18
16
#50000
0#
0/
0%
08
10
0:
0.
0$
#60000
0!
0,
0-
1%
#75000
1#
1!
1/
1,
1-
0%
18
00
1:
1.
1$
17
13
08
06
#90000
0!
0,
0-
1%
#100000
0#
0/
0%
16
10
0:
0.
0$
#105000
1!
1,
1-
1%
#120000
0!
0,
0-
0%
#125000
1#
1/
1%
06
00
1:
1.
1$
#135000
1!
1,
1-
0%
07
03
18
16
#150000
0#
0!
0/
0,
0-
1%
08
10
0:
0.
0$
#165000
1!
1,
1-
0%
17
13
#175000
1#
1/
1%
06
00
1:
1.
1$
#180000
0!
0,
0-
0%
#195000
1!
1,
1-
1%
07
03
18
16
#200000
0#
0/
0%
08
10
0:
0.
0$
#210000
0!
0,
0-
1%
#225000
1#
1!
1/
1,
1-
0%
18
00
1:
1.
1$
17
13
08
06
#240000
0!
0,
0-
1%
#250000
0#
0/
0%
16
10
0:
0.
0$
#255000
1!
1,
1-
1%
#270000
0!
0,
0-
0%
#275000
1#
1/
1%
06
00
1:
1.
1$
#285000
1!
1,
1-
0%
07
03
18
16
#300000
0#
0!
0/
0,
0-
1%
08
10
0:
0.
0$
#315000
1!
1,
1-
0%
17
13
#325000
1#
1/
1%
06
00
1:
1.
1$
#330000
0!
0,
0-
0%
#345000
1!
1,
1-
1%
07
03
18
16
#350000
0#
0/
0%
08
10
0:
0.
0$
#360000
0!
0,
0-
1%
#375000
1#
1!
1/
1,
1-
0%
18
00
1:
1.
1$
17
13
08
06
#390000
0!
0,
0-
1%
#400000
0#
0/
0%
16
10
0:
0.
0$
#405000
1!
1,
1-
1%
#420000
0!
0,
0-
0%
#425000
1#
1/
1%
06
00
1:
1.
1$
#435000
1!
1,
1-
0%
07
03
18
16
#450000
0#
0!
0/
0,
0-
1%
08
10
0:
0.
0$
#465000
1!
1,
1-
0%
17
13
#475000
1#
1/
1%
06
00
1:
1.
1$
#480000
0!
0,
0-
0%
#495000
1!
1,
1-
1%
07
03
18
16
#500000
0#
0/
0%
08
10
0:
0.
0$
#510000
0!
0,
0-
1%
#525000
1#
1!
1/
1,
1-
0%
18
00
1:
1.
1$
17
13
08
06
#540000
0!
0,
0-
1%
#550000
0#
0/
0%
16
10
0:
0.
0$
#555000
1!
1,
1-
1%
#570000
0!
0,
0-
0%
#575000
1#
1/
1%
06
00
1:
1.
1$
#585000
1!
1,
1-
0%
07
03
18
16
#600000
0#
0!
0/
0,
0-
1%
08
10
0:
0.
0$
#615000
1!
1,
1-
0%
17
13
#625000
1#
1/
1%
06
00
1:
1.
1$
#630000
0!
0,
0-
0%
#645000
1!
1,
1-
1%
07
03
18
16
#650000
0#
0/
0%
08
10
0:
0.
0$
#660000
0!
0,
0-
1%
#675000
1#
1!
1/
1,
1-
0%
18
00
1:
1.
1$
17
13
08
06
#690000
0!
0,
0-
1%
#700000
0#
0/
0%
16
10
0:
0.
0$
#705000
1!
1,
1-
1%
#720000
0!
0,
0-
0%
#725000
1#
1/
1%
06
00
1:
1.
1$
#735000
1!
1,
1-
0%
07
03
18
16
#750000
0#
0!
0/
0,
0-
1%
08
10
0:
0.
0$
#765000
1!
1,
1-
0%
17
13
#775000
1#
1/
1%
06
00
1:
1.
1$
#780000
0!
0,
0-
0%
#795000
1!
1,
1-
1%
07
03
18
16
#800000
0#
0/
0%
08
10
0:
0.
0$
#810000
0!
0,
0-
1%
#825000
1#
1!
1/
1,
1-
0%
18
00
1:
1.
1$
17
13
08
06
#840000
0!
0,
0-
1%
#850000
0#
0/
0%
16
10
0:
0.
0$
#855000
1!
1,
1-
1%
#870000
0!
0,
0-
0%
#875000
1#
1/
1%
06
00
1:
1.
1$
#885000
1!
1,
1-
0%
07
03
18
16
#900000
0#
0!
0/
0,
0-
1%
08
10
0:
0.
0$
#915000
1!
1,
1-
0%
17
13
#925000
1#
1/
1%
06
00
1:
1.
1$
#930000
0!
0,
0-
0%
#945000
1!
1,
1-
1%
07
03
18
16
#950000
0#
0/
0%
08
10
0:
0.
0$
#960000
0!
0,
0-
1%
#975000
1#
1!
1/
1,
1-
0%
18
00
1:
1.
1$
17
13
08
06
#990000
0!
0,
0-
1%
