ParteB/simulation/qsim/parteb.msim.vcd
$comment
	File created using the following command:
		vcd file parteb.msim.vcd -direction
$end
$date
	Fri Nov 18 00:48:50 2022
$end
$version
	ModelSim Version 10.1d
$end
$timescale
	1ps
$end
$scope module sumador_completo_vlg_vec_tst $end
$var reg 1 ! clk $end
$var reg 1 " in_a $end
$var reg 1 # in_b $end
$var reg 1 $ in_cin $end
$var wire 1 % o_cout $end
$var wire 1 & o_f $end
$var wire 1 ' sampler $end
$scope module i1 $end
$var wire 1 ( gnd $end
$var wire 1 ) vcc $end
$var wire 1 * unknown $end
$var tri1 1 + devclrn $end
$var tri1 1 , devpor $end
$var tri1 1 - devoe $end
$var wire 1 . d3|q~q $end
$var wire 1 / in_cin~input_o $end
$var wire 1 0 d3|q~feeder_combout $end
$var wire 1 1 o_f~output_o $end
$var wire 1 2 o_cout~output_o $end
$var wire 1 3 clk~input_o $end
$var wire 1 4 clk~inputclkctrl_outclk $end
$var wire 1 5 in_b~input_o $end
$var wire 1 6 d2|q~feeder_combout $end
$var wire 1 7 d2|q~q $end
$var wire 1 8 in_a~input_o $end
$var wire 1 9 d1|q~feeder_combout $end
$var wire 1 : d1|q~q $end
$var wire 1 ; f~0_combout $end
$var wire 1 < d5|q~q $end
$var wire 1 = cout~0_combout $end
$var wire 1 > d4|q~q $end
$upscope $end
$upscope $end
$enddefinitions $end
#0
$dumpvars
0!
0"
0#
0$
0%
0&
x'
0(
1)
x*
1+
1,
1-
0.
0/
00
01
02
03
04
05
06
07
08
09
0:
0;
0<
0=
0>
$end
#5000
1!
13
14
0'
#10000
0!
03
04
1'
#15000
1!
13
14
0'
#20000
0!
03
04
1'
#25000
1!
13
14
0'
#30000
0!
03
04
1'
#35000
1!
13
14
0'
#40000
0!
03
04
1'
#45000
1!
13
14
0'
#50000
1"
0!
18
03
04
1'
19
#55000
1!
13
14
0'
1:
1;
#60000
0!
03
04
1'
#65000
1!
13
14
0'
1<
11
1&
#70000
0!
03
04
1'
#75000
1!
13
14
0'
#80000
0!
03
04
1'
#85000
1!
13
14
0'
#90000
0!
03
04
1'
#95000
1!
13
14
0'
#100000
1#
0"
0!
15
08
03
04
1'
16
09
#105000
1!
13
14
0'
0:
17
#110000
0!
03
04
1'
#115000
1!
13
14
0'
#120000
0!
03
04
1'
#125000
1!
13
14
0'
#130000
0!
03
04
1'
#135000
1!
13
14
0'
#140000
0!
03
04
1'
#145000
1!
13
14
0'
#150000
1$
1"
0!
1/
18
03
04
1'
10
19
#155000
1!
13
14
0'
1:
1.
1=
#160000
0!
03
04
1'
#165000
1!
13
14
0'
1>
12
1%
#170000
0!
03
04
1'
#175000
1!
13
14
0'
#180000
0!
03
04
1'
#185000
1!
13
14
0'
#190000
0!
03
04
1'
#195000
1!
13
14
0'
#200000
0#
0"
0!
05
08
03
04
1'
06
09
#205000
1!
13
14
0'
0:
07
0=
#210000
0!
03
04
1'
#215000
1!
13
14
0'
0>
02
0%
#220000
0!
03
04
1'
#225000
1!
13
14
0'
#230000
0!
03
04
1'
#235000
1!
13
14
0'
#240000
0!
03
04
1'
#245000
1!
13
14
0'
#250000
1"
0!
18
03
04
1'
19
#255000
1!
13
14
0'
1:
1=
0;
#260000
0!
03
04
1'
#265000
1!
13
14
0'
1>
0<
12
01
1%
0&
#270000
0!
03
04
1'
#275000
1!
13
14
0'
#280000
0!
03
04
1'
#285000
1!
13
14
0'
#290000
0!
03
04
1'
#295000
1!
13
14
0'
#300000
0$
1#
0"
0!
0/
15
08
03
04
1'
00
16
09
#305000
1!
13
14
0'
0:
17
0.
0=
1;
#310000
0!
03
04
1'
#315000
1!
13
14
0'
0>
1<
02
11
0%
1&
#320000
0!
03
04
1'
#325000
1!
13
14
0'
#330000
0!
03
04
1'
#335000
1!
13
14
0'
#340000
0!
03
04
1'
#345000
1!
13
14
0'
#350000
1"
0!
18
03
04
1'
19
#355000
1!
13
14
0'
1:
1=
0;
#360000
0!
03
04
1'
#365000
1!
13
14
0'
1>
0<
12
01
1%
0&
#370000
0!
03
04
1'
#375000
1!
13
14
0'
#380000
0!
03
04
1'
#385000
1!
13
14
0'
#390000
0!
03
04
1'
#395000
1!
13
14
0'
#400000
0#
0"
0!
05
08
03
04
1'
06
09
#405000
1!
13
14
0'
0:
07
0=
#410000
0!
03
04
1'
#415000
1!
13
14
0'
0>
02
0%
#420000
0!
03
04
1'
#425000
1!
13
14
0'
#430000
0!
03
04
1'
#435000
1!
13
14
0'
#440000
0!
03
04
1'
#445000
1!
13
14
0'
#450000
1$
1"
0!
1/
18
03
04
1'
10
19
#455000
1!
13
14
0'
1:
1.
1=
#460000
0!
03
04
1'
#465000
1!
13
14
0'
1>
12
1%
#470000
0!
03
04
1'
#475000
1!
13
14
0'
#480000
0!
03
04
1'
#485000
1!
13
14
0'
#490000
0!
03
04
1'
#495000
1!
13
14
0'
#500000
1#
0"
0!
15
08
03
04
1'
16
09
#505000
1!
13
14
0'
0:
17
#510000
0!
03
04
1'
#515000
1!
13
14
0'
#520000
0!
03
04
1'
#525000
1!
13
14
0'
#530000
0!
03
04
1'
#535000
1!
13
14
0'
#540000
0!
03
04
1'
#545000
1!
13
14
0'
#550000
1"
0!
18
03
04
1'
19
#555000
1!
13
14
0'
1:
1;
#560000
0!
03
04
1'
#565000
1!
13
14
0'
1<
11
1&
#570000
0!
03
04
1'
#575000
1!
13
14
0'
#580000
0!
03
04
1'
#585000
1!
13
14
0'
#590000
0!
03
04
1'
#595000
1!
13
14
0'
#600000
0$
0#
0"
0!
0/
05
08
03
04
1'
00
06
09
#605000
1!
13
14
0'
0:
07
0.
0=
0;
#610000
0!
03
04
1'
#615000
1!
13
14
0'
0>
0<
02
01
0%
0&
#620000
0!
03
04
1'
#625000
1!
13
14
0'
#630000
0!
03
04
1'
#635000
1!
13
14
0'
#640000
0!
03
04
1'
#645000
1!
13
14
0'
#650000
1"
0!
18
03
04
1'
19
#655000
1!
13
14
0'
1:
1;
#660000
0!
03
04
1'
#665000
1!
13
14
0'
1<
11
1&
#670000
0!
03
04
1'
#675000
1!
13
14
0'
#680000
0!
03
04
1'
#685000
1!
13
14
0'
#690000
0!
03
04
1'
#695000
1!
13
14
0'
#700000
1#
0"
0!
15
08
03
04
1'
16
09
#705000
1!
13
14
0'
0:
17
#710000
0!
03
04
1'
#715000
1!
13
14
0'
#720000
0!
03
04
1'
#725000
1!
13
14
0'
#730000
0!
03
04
1'
#735000
1!
13
14
0'
#740000
0!
03
04
1'
#745000
1!
13
14
0'
#750000
1$
1"
0!
1/
18
03
04
1'
10
19
#755000
1!
13
14
0'
1:
1.
1=
#760000
0!
03
04
1'
#765000
1!
13
14
0'
1>
12
1%
#770000
0!
03
04
1'
#775000
1!
13
14
0'
#780000
0!
03
04
1'
#785000
1!
13
14
0'
#790000
0!
03
04
1'
#795000
1!
13
14
0'
#800000
0#
0"
0!
05
08
03
04
1'
06
09
#805000
1!
13
14
0'
0:
07
0=
#810000
0!
03
04
1'
#815000
1!
13
14
0'
0>
02
0%
#820000
0!
03
04
1'
#825000
1!
13
14
0'
#830000
0!
03
04
1'
#835000
1!
13
14
0'
#840000
0!
03
04
1'
#845000
1!
13
14
0'
#850000
1"
0!
18
03
04
1'
19
#855000
1!
13
14
0'
1:
1=
0;
#860000
0!
03
04
1'
#865000
1!
13
14
0'
1>
0<
12
01
1%
0&
#870000
0!
03
04
1'
#875000
1!
13
14
0'
#880000
0!
03
04
1'
#885000
1!
13
14
0'
#890000
0!
03
04
1'
#895000
1!
13
14
0'
#900000
0$
1#
0"
0!
0/
15
08
03
04
1'
00
16
09
#905000
1!
13
14
0'
0:
17
0.
0=
1;
#910000
0!
03
04
1'
#915000
1!
13
14
0'
0>
1<
02
11
0%
1&
#920000
0!
03
04
1'
#925000
1!
13
14
0'
#930000
0!
03
04
1'
#935000
1!
13
14
0'
#940000
0!
03
04
1'
#945000
1!
13
14
0'
#950000
1"
0!
18
03
04
1'
19
#955000
1!
13
14
0'
1:
1=
0;
#960000
0!
03
04
1'
#965000
1!
13
14
0'
1>
0<
12
01
1%
0&
#970000
0!
03
04
1'
#975000
1!
13
14
0'
#980000
0!
03
04
1'
#985000
1!
13
14
0'
#990000
0!
03
04
1'
#995000
1!
13
14
0'
