ParteB/simulation/qsim/parteb.msim.vcd
$comment
	File created using the following command:
		vcd file parteb.msim.vcd -direction
$end
$date
	Thu Nov 17 22:27:14 2022
$end
$version
	ModelSim Version 10.1d
$end
$timescale
	1ps
$end
$scope module parteb_vlg_vec_tst $end
$var reg 1 ! clock $end
$var reg 1 " d $end
$var wire 1 # q $end
$var wire 1 $ sampler $end
$scope module i1 $end
$var wire 1 % gnd $end
$var wire 1 & vcc $end
$var wire 1 ' unknown $end
$var tri1 1 ( devclrn $end
$var tri1 1 ) devpor $end
$var tri1 1 * devoe $end
$var wire 1 + q~output_o $end
$var wire 1 , clock~input_o $end
$var wire 1 - d~input_o $end
$var wire 1 . q~reg0feeder_combout $end
$var wire 1 / q~reg0_q $end
$upscope $end
$upscope $end
$enddefinitions $end
#0
$dumpvars
0!
0"
0#
x$
0%
1&
x'
1(
1)
1*
0+
0,
0-
0.
0/
$end
#15000
1!
1,
0$
#30000
0!
0,
1$
#45000
1!
1,
0$
#50000
1"
1-
1$
1.
#60000
0!
0,
0$
#75000
1!
1,
1$
1/
1+
1#
#90000
0!
0,
0$
#100000
0"
0-
1$
0.
#105000
1!
1,
0$
0/
0+
0#
#120000
0!
0,
1$
#135000
1!
1,
0$
#150000
1"
0!
1-
0,
1$
1.
#165000
1!
1,
0$
1/
1+
1#
#180000
0!
0,
1$
#195000
1!
1,
0$
#200000
0"
0-
1$
0.
#210000
0!
0,
0$
#225000
1!
1,
1$
0/
0+
0#
#240000
0!
0,
0$
#250000
1"
1-
1$
1.
#255000
1!
1,
0$
1/
1+
1#
#270000
0!
0,
1$
#285000
1!
1,
0$
#300000
0"
0!
0-
0,
1$
0.
#315000
1!
1,
0$
0/
0+
0#
#330000
0!
0,
1$
#345000
1!
1,
0$
#350000
1"
1-
1$
1.
#360000
0!
0,
0$
#375000
1!
1,
1$
1/
1+
1#
#390000
0!
0,
0$
#400000
0"
0-
1$
0.
#405000
1!
1,
0$
0/
0+
0#
#420000
0!
0,
1$
#435000
1!
1,
0$
#450000
1"
0!
1-
0,
1$
1.
#465000
1!
1,
0$
1/
1+
1#
#480000
0!
0,
1$
#495000
1!
1,
0$
#500000
0"
0-
1$
0.
#510000
0!
0,
0$
#525000
1!
1,
1$
0/
0+
0#
#540000
0!
0,
0$
#550000
1"
1-
1$
1.
#555000
1!
1,
0$
1/
1+
1#
#570000
0!
0,
1$
#585000
1!
1,
0$
#600000
0"
0!
0-
0,
1$
0.
#615000
1!
1,
0$
0/
0+
0#
#630000
0!
0,
1$
#645000
1!
1,
0$
#650000
1"
1-
1$
1.
#660000
0!
0,
0$
#675000
1!
1,
1$
1/
1+
1#
#690000
0!
0,
0$
#700000
0"
0-
1$
0.
#705000
1!
1,
0$
0/
0+
0#
#720000
0!
0,
1$
#735000
1!
1,
0$
#750000
1"
0!
1-
0,
1$
1.
#765000
1!
1,
0$
1/
1+
1#
#780000
0!
0,
1$
#795000
1!
1,
0$
#800000
0"
0-
1$
0.
#810000
0!
0,
0$
#825000
1!
1,
1$
0/
0+
0#
#840000
0!
0,
0$
#850000
1"
1-
1$
1.
#855000
1!
1,
0$
1/
1+
1#
#870000
0!
0,
1$
#885000
1!
1,
0$
#900000
0"
0!
0-
0,
1$
0.
#915000
1!
1,
0$
0/
0+
0#
#930000
0!
0,
1$
#945000
1!
1,
0$
#950000
1"
1-
1$
1.
#960000
0!
0,
0$
#975000
1!
1,
1$
1/
1+
1#
#990000
0!
0,
0$
